<svg width="20" height="21" viewBox="0 0 20 21" fill="none" xmlns="http://www.w3.org/2000/svg">
<path d="M19.5839 18.0857L16.2172 14.6207C17.4515 13.076 18.1921 11.1002 18.1921 8.94869C18.1921 4.01387 14.2909 0 9.4971 0C4.70329 0 0.803223 4.015 0.803223 8.94869C0.803223 13.8824 4.70329 17.8974 9.4971 17.8974C11.3276 17.8974 13.028 17.311 14.4309 16.3118L17.8681 19.8504C18.3419 20.3381 19.109 20.3381 19.5828 19.8504C20.0556 19.3627 20.0556 18.5734 19.5828 18.0857H19.5839ZM3.41502 8.94869C3.41502 5.49738 6.14363 2.68801 9.4971 2.68801C12.8506 2.68801 15.5803 5.49624 15.5803 8.94869C15.5803 10.6692 14.9014 12.2299 13.806 13.3618C13.6561 13.5172 13.4974 13.6635 13.3321 13.8019C12.2852 14.6797 10.9507 15.2082 9.4982 15.2082C6.14474 15.2082 3.41612 12.4 3.41612 8.94869H3.41502Z" fill="#E8F9FF"/>
</svg>
